Insert into pos_init (
						TRX_ID,
						POS_ID,
						USERID,
						SESSION_ID,
						BALANCE,
						ENT_DATE,
						CLOSING_STATUS)
					values (
						'1',
						'11502',
						'root',
						'3',
						'100',
						'2023-06-13 12:59:55',
						'N'
						)