Insert into pos_init (
						TRX_ID,
						POS_ID,
						USERID,
						SESSION_ID,
						BALANCE,
						ENT_DATE,
						CLOSING_STATUS)
					values (
						'2',
						'11502',
						'arini',
						'6',
						'100',
						'2023-06-18 02:27:25',
						'N'
						)