Insert into trx_ctl (
							TRX_ID,
							TRX_DATE,
							PRIOR_TRX_DATE,
							TRX_STATUS,
							COUNTER_NO,
							OPENING_USER,
							OPENING_DATE,						
							POS_ID)
						values (
							'4',
							'2023-07-14',
							'2023-06-27 00:00:00',
							0,
							0,
							'root',
							'2023-07-14 04:45:12',						
							'11502')